/* XPM */
static char * title_4_inactive_xpm[] = {
"2 26 3 1",
" 	c None",
".	c #100a07",
"+	c #100a07",
"..",
"++",
"++",
"++",
"++",
"++",
"++",
"++",
"++",
"++",
"++",
"++",
"++",
"++",
"++",
"++",
"++",
"++",
"++",
"++",
"++",
"++",
"++",
"++",
"++",
"++"};
